Strength of species-group associations for a phyloseq object — strassoc_pq • MiscMetabar
…
    Adrien Taudière

    Examples

# \donttest{
if (requireNamespace("indicspecies")) {
  strassoc_pq(
    subset_samples(data_fungi_mini, !is.na(Height)),
    fact = "Height",
    func = "IndVal.g"
  )
}
#> Taxa are now in columns.
#> # A tibble: 45 × 4
#>    taxon   High    Low  Middle
#>    <chr>  <dbl>  <dbl>   <dbl>
#>  1 ASV7  0.519  0.157  0.268  
#>  2 ASV8  0.553  0.239  0.474  
#>  3 ASV12 0.178  0.391  0.157  
#>  4 ASV18 0.508  0.0984 0.0939 
#>  5 ASV25 0.459  0.0229 0.0218 
#>  6 ASV26 0.0173 0.105  0.304  
#>  7 ASV27 0.0576 0.168  0.00346
#>  8 ASV29 0.0340 0.229  0.266  
#>  9 ASV32 0.266  0.0169 0      
#> 10 ASV34 0.154  0.266  0.387  
#> # ℹ 35 more rows
…
